measurements/ADC Measurements/tek0001.csv

Model,MDO3024
Firmware Version,1.20

Waveform Type,ANALOG
Point Format,Y
Horizontal Units,s
Horizontal Scale,8e-07
Horizontal Delay,0
Sample Interval,8e-10
Record Length,10000
Gating,0.0% to 100.0%
Probe Attenuation,10
Vertical Units,V
Vertical Offset,0
Vertical Scale,0.5
Vertical Position,-1.06
,
,
,
Label,
TIME,CH1
-4.000000e-06,0.95
-3.999200e-06,0.91
-3.998400e-06,0.95
-3.997600e-06,0.95
-3.996800e-06,0.93
-3.996000e-06,0.95
-3.995200e-06,0.95
-3.994400e-06,0.97
-3.993600e-06,0.95
-3.992800e-06,0.95
-3.992000e-06,0.97
-3.991200e-06,0.97
-3.990400e-06,0.99
-3.989600e-06,0.99
-3.988800e-06,0.95
-3.988000e-06,0.97
-3.987200e-06,0.99
-3.986400e-06,0.97
-3.985600e-06,0.95
-3.984800e-06,0.95
-3.984000e-06,0.99
-3.983200e-06,0.97
-3.982400e-06,0.97
-3.981600e-06,0.97
-3.980800e-06,0.99
-3.980000e-06,1.01
-3.979200e-06,0.99
-3.978400e-06,0.99
-3.977600e-06,0.99
-3.976800e-06,0.99
-3.976000e-06,0.99
-3.975200e-06,0.99
-3.974400e-06,1.01
-3.973600e-06,1.03
-3.972800e-06,1.01
-3.972000e-06,1.01
-3.971200e-06,1.01
-3.970400e-06,1.03
-3.969600e-06,1.01
-3.968800e-06,1.01
-3.968000e-06,1.03
-3.967200e-06,1.03
-3.966400e-06,1.03
-3.965600e-06,1.01
-3.964800e-06,1.03
-3.964000e-06,1.05
-3.963200e-06,1.03
-3.962400e-06,1.05
-3.961600e-06,1.03
-3.960800e-06,1.03
-3.960000e-06,1.05
-3.959200e-06,1.05
-3.958400e-06,1.05
-3.957600e-06,1.05
-3.956800e-06,1.07
-3.956000e-06,1.03
-3.955200e-06,1.05
-3.954400e-06,1.05
-3.953600e-06,1.07
-3.952800e-06,1.03
-3.952000e-06,1.09
-3.951200e-06,1.05
-3.950400e-06,1.07
-3.949600e-06,1.05
-3.948800e-06,1.07
-3.948000e-06,1.09
-3.947200e-06,1.07
-3.946400e-06,1.09
-3.945600e-06,1.07
-3.944800e-06,1.07
-3.944000e-06,1.05
-3.943200e-06,1.09
-3.942400e-06,1.07
-3.941600e-06,1.07
-3.940800e-06,1.09
-3.940000e-06,1.09
-3.939200e-06,1.09
-3.938400e-06,1.09
-3.937600e-06,1.09
-3.936800e-06,1.11
-3.936000e-06,1.11
-3.935200e-06,1.11
-3.934400e-06,1.09
-3.933600e-06,1.11
-3.932800e-06,1.11
-3.932000e-06,1.11
-3.931200e-06,1.09
-3.930400e-06,1.13
-3.929600e-06,1.11
-3.928800e-06,1.13
-3.928000e-06,1.11
-3.927200e-06,1.11
-3.926400e-06,1.11
-3.925600e-06,1.13
-3.924800e-06,1.11
-3.924000e-06,1.13
-3.923200e-06,1.13
-3.922400e-06,1.13
-3.921600e-06,1.15
-3.920800e-06,1.13
-3.920000e-06,1.17
-3.919200e-06,1.15
-3.918400e-06,1.13
-3.917600e-06,1.15
-3.916800e-06,1.15
-3.916000e-06,1.15
-3.915200e-06,1.15
-3.914400e-06,1.15
-3.913600e-06,1.17
-3.912800e-06,1.15
-3.912000e-06,1.15
-3.911200e-06,1.17
-3.910400e-06,1.19
-3.909600e-06,1.15
-3.908800e-06,1.17
-3.908000e-06,1.17
-3.907200e-06,1.17
-3.906400e-06,1.17
-3.905600e-06,1.17
-3.904800e-06,1.17
-3.904000e-06,1.19
-3.903200e-06,1.19
-3.902400e-06,1.19
-3.901600e-06,1.19
-3.900800e-06,1.17
-3.900000e-06,1.19
-3.899200e-06,1.19
-3.898400e-06,1.19
-3.897600e-06,1.21
-3.896800e-06,1.19
-3.896000e-06,1.21
-3.895200e-06,1.21
-3.894400e-06,1.19
-3.893600e-06,1.19
-3.892800e-06,1.21
-3.892000e-06,1.19
-3.891200e-06,1.21
-3.890400e-06,1.21
-3.889600e-06,1.21
-3.888800e-06,1.21
-3.888000e-06,1.21
-3.887200e-06,1.21
-3.886400e-06,1.23
-3.885600e-06,1.23
-3.884800e-06,1.21
-3.884000e-06,1.21
-3.883200e-06,1.21
-3.882400e-06,1.23
-3.881600e-06,1.23
-3.880800e-06,1.23
-3.880000e-06,1.23
-3.879200e-06,1.23
-3.878400e-06,1.25
-3.877600e-06,1.23
-3.876800e-06,1.23
-3.876000e-06,1.27
-3.875200e-06,1.25
-3.874400e-06,1.25
-3.873600e-06,1.23
-3.872800e-06,1.25
-3.872000e-06,1.27
-3.871200e-06,1.27
-3.870400e-06,1.27
-3.869600e-06,1.25
-3.868800e-06,1.25
-3.868000e-06,1.27
-3.867200e-06,1.25
-3.866400e-06,1.27
-3.865600e-06,1.27
-3.864800e-06,1.27
-3.864000e-06,1.27
-3.863200e-06,1.27
-3.862400e-06,1.27
-3.861600e-06,1.25
-3.860800e-06,1.29
-3.860000e-06,1.29
-3.859200e-06,1.29
-3.858400e-06,1.25
-3.857600e-06,1.29
-3.856800e-06,1.29
-3.856000e-06,1.29
-3.855200e-06,1.31
-3.854400e-06,1.29
-3.853600e-06,1.29
-3.852800e-06,1.29
-3.852000e-06,1.31
-3.851200e-06,1.31
-3.850400e-06,1.27
-3.849600e-06,1.31
-3.848800e-06,1.29
-3.848000e-06,1.31
-3.847200e-06,1.33
-3.846400e-06,1.29
-3.845600e-06,1.31
-3.844800e-06,1.29
-3.844000e-06,1.29
-3.843200e-06,1.33
-3.842400e-06,1.31
-3.841600e-06,1.31
-3.840800e-06,1.31
-3.840000e-06,1.33
-3.839200e-06,1.33
-3.838400e-06,1.33
-3.837600e-06,1.33
-3.836800e-06,1.31
-3.836000e-06,1.33
-3.835200e-06,1.31
-3.834400e-06,1.35
-3.833600e-06,1.33
-3.832800e-06,1.33
-3.832000e-06,1.33
-3.831200e-06,1.33
-3.830400e-06,1.33
-3.829600e-06,1.31
-3.828800e-06,1.33
-3.828000e-06,1.31
-3.827200e-06,1.33
-3.826400e-06,1.31
-3.825600e-06,1.31
-3.824800e-06,1.33
-3.824000e-06,1.33
-3.823200e-06,1.31
-3.822400e-06,1.35
-3.821600e-06,1.33
-3.820800e-06,1.31
-3.820000e-06,1.31
-3.819200e-06,1.31
-3.818400e-06,1.33
-3.817600e-06,1.33
-3.816800e-06,1.33
-3.816000e-06,1.35
-3.815200e-06,1.33
-3.814400e-06,1.35
-3.813600e-06,1.33
-3.812800e-06,1.33
-3.812000e-06,1.37
-3.811200e-06,1.35
-3.810400e-06,1.35
-3.809600e-06,1.37
-3.808800e-06,1.37
-3.808000e-06,1.35
-3.807200e-06,1.37
-3.806400e-06,1.35
-3.805600e-06,1.37
-3.804800e-06,1.37
-3.804000e-06,1.37
-3.803200e-06,1.39
-3.802400e-06,1.37
-3.801600e-06,1.35
-3.800800e-06,1.37
-3.800000e-06,1.37
-3.799200e-06,1.39
-3.798400e-06,1.39
-3.797600e-06,1.37
-3.796800e-06,1.39
-3.796000e-06,1.39
-3.795200e-06,1.41
-3.794400e-06,1.41
-3.793600e-06,1.41
-3.792800e-06,1.37
-3.792000e-06,1.39
-3.791200e-06,1.41
-3.790400e-06,1.39
-3.789600e-06,1.41
-3.788800e-06,1.41
-3.788000e-06,1.41
-3.787200e-06,1.41
-3.786400e-06,1.41
-3.785600e-06,1.41
-3.784800e-06,1.41
-3.784000e-06,1.39
-3.783200e-06,1.43
-3.782400e-06,1.41
-3.781600e-06,1.41
-3.780800e-06,1.41
-3.780000e-06,1.43
-3.779200e-06,1.41
-3.778400e-06,1.41
-3.777600e-06,1.41
-3.776800e-06,1.43
-3.776000e-06,1.43
-3.775200e-06,1.43
-3.774400e-06,1.41
-3.773600e-06,1.45
-3.772800e-06,1.45
-3.772000e-06,1.43
-3.771200e-06,1.45
-3.770400e-06,1.45
-3.769600e-06,1.45
-3.768800e-06,1.45
-3.768000e-06,1.45
-3.767200e-06,1.45
-3.766400e-06,1.47
-3.765600e-06,1.45
-3.764800e-06,1.47
-3.764000e-06,1.45
-3.763200e-06,1.43
-3.762400e-06,1.45
-3.761600e-06,1.45
-3.760800e-06,1.47
-3.760000e-06,1.47
-3.759200e-06,1.49
-3.758400e-06,1.49
-3.757600e-06,1.47
-3.756800e-06,1.47
-3.756000e-06,1.47
-3.755200e-06,1.47
-3.754400e-06,1.47
-3.753600e-06,1.47
-3.752800e-06,1.47
-3.752000e-06,1.49
-3.751200e-06,1.49
-3.750400e-06,1.49
-3.749600e-06,1.51
-3.748800e-06,1.47
-3.748000e-06,1.47
-3.747200e-06,1.49
-3.746400e-06,1.49
-3.745600e-06,1.49
-3.744800e-06,1.51
-3.744000e-06,1.51
-3.743200e-06,1.51
-3.742400e-06,1.49
-3.741600e-06,1.51
-3.740800e-06,1.49
-3.740000e-06,1.49
-3.739200e-06,1.51
-3.738400e-06,1.53
-3.737600e-06,1.51
-3.736800e-06,1.51
-3.736000e-06,1.53
-3.735200e-06,1.49
-3.734400e-06,1.55
-3.733600e-06,1.53
-3.732800e-06,1.53
-3.732000e-06,1.53
-3.731200e-06,1.51
-3.730400e-06,1.53
-3.729600e-06,1.53
-3.728800e-06,1.53
-3.728000e-06,1.53
-3.727200e-06,1.53
-3.726400e-06,1.55
-3.725600e-06,1.53
-3.724800e-06,1.53
-3.724000e-06,1.57
-3.723200e-06,1.55
-3.722400e-06,1.55
-3.721600e-06,1.57
-3.720800e-06,1.57
-3.720000e-06,1.55
-3.719200e-06,1.55
-3.718400e-06,1.57
-3.717600e-06,1.59
-3.716800e-06,1.59
-3.716000e-06,1.61
-3.715200e-06,1.57
-3.714400e-06,1.57
-3.713600e-06,1.59
-3.712800e-06,1.57
-3.712000e-06,1.57
-3.711200e-06,1.61
-3.710400e-06,1.59
-3.709600e-06,1.59
-3.708800e-06,1.61
-3.708000e-06,1.61
-3.707200e-06,1.61
-3.706400e-06,1.61
-3.705600e-06,1.61
-3.704800e-06,1.59
-3.704000e-06,1.57
-3.703200e-06,1.59
-3.702400e-06,1.59
-3.701600e-06,1.59
-3.700800e-06,1.57
-3.700000e-06,1.57
-3.699200e-06,1.57
-3.698400e-06,1.59
-3.697600e-06,1.59
-3.696800e-06,1.61
-3.696000e-06,1.59
-3.695200e-06,1.59
-3.694400e-06,1.61
-3.693600e-06,1.61
-3.692800e-06,1.61
-3.692000e-06,1.61
-3.691200e-06,1.61
-3.690400e-06,1.61
-3.689600e-06,1.63
-3.688800e-06,1.63
-3.688000e-06,1.63
-3.687200e-06,1.61
-3.686400e-06,1.61
-3.685600e-06,1.61
-3.684800e-06,1.63
-3.684000e-06,1.65
-3.683200e-06,1.63
-3.682400e-06,1.63
-3.681600e-06,1.63
-3.680800e-06,1.65
-3.680000e-06,1.61
-3.679200e-06,1.63
-3.678400e-06,1.63
-3.677600e-06,1.63
-3.676800e-06,1.63
-3.676000e-06,1.63
-3.675200e-06,1.63
-3.674400e-06,1.61
-3.673600e-06,1.61
-3.672800e-06,1.63
-3.672000e-06,1.63
-3.671200e-06,1.63
-3.670400e-06,1.63
-3.669600e-06,1.63
-3.668800e-06,1.59
-3.668000e-06,1.63
-3.667200e-06,1.63
-3.666400e-06,1.61
-3.665600e-06,1.63
-3.664800e-06,1.63
-3.664000e-06,1.63
-3.663200e-06,1.63
-3.662400e-06,1.61
-3.661600e-06,1.65
-3.660800e-06,1.65
-3.660000e-06,1.65
-3.659200e-06,1.63
-3.658400e-06,1.63
-3.657600e-06,1.63
-3.656800e-06,1.63
-3.656000e-06,1.63
-3.655200e-06,1.65
-3.654400e-06,1.61
-3.653600e-06,1.61
-3.652800e-06,1.65
-3.652000e-06,1.65
-3.651200e-06,1.63
-3.650400e-06,1.65
-3.649600e-06,1.63
-3.648800e-06,1.65
-3.648000e-06,1.61
-3.647200e-06,1.63
-3.646400e-06,1.63
-3.645600e-06,1.63
-3.644800e-06,1.63
-3.644000e-06,1.63
-3.643200e-06,1.65
-3.642400e-06,1.67
-3.641600e-06,1.65
-3.640800e-06,1.67
-3.640000e-06,1.63
-3.639200e-06,1.63
-3.638400e-06,1.65
-3.637600e-06,1.65
-3.636800e-06,1.65
-3.636000e-06,1.65
-3.635200e-06,1.65
-3.634400e-06,1.67
-3.633600e-06,1.63
-3.632800e-06,1.63
-3.632000e-06,1.65
-3.631200e-06,1.65
-3.630400e-06,1.67
-3.629600e-06,1.65
-3.628800e-06,1.65
-3.628000e-06,1.65
-3.627200e-06,1.63
-3.626400e-06,1.63
-3.625600e-06,1.65
-3.624800e-06,1.65
-3.624000e-06,1.65
-3.623200e-06,1.67
-3.622400e-06,1.65
-3.621600e-06,1.65
-3.620800e-06,1.65
-3.620000e-06,1.65
-3.619200e-06,1.65
-3.618400e-06,1.65
-3.617600e-06,1.65
-3.616800e-06,1.65
-3.616000e-06,1.67
-3.615200e-06,1.65
-3.614400e-06,1.65
-3.613600e-06,1.67
-3.612800e-06,1.65
-3.612000e-06,1.67
-3.611200e-06,1.65
-3.610400e-06,1.65
-3.609600e-06,1.67
-3.608800e-06,1.67
-3.608000e-06,1.65
-3.607200e-06,1.65
-3.606400e-06,1.65
-3.605600e-06,1.65
-3.604800e-06,1.67
-3.604000e-06,1.67
-3.603200e-06,1.65
-3.602400e-06,1.67
-3.601600e-06,1.63
-3.600800e-06,1.65
-3.600000e-06,1.65
-3.599200e-06,1.65
-3.598400e-06,1.67
-3.597600e-06,1.67
-3.596800e-06,1.67
-3.596000e-06,1.67
-3.595200e-06,1.67
-3.594400e-06,1.67
-3.593600e-06,1.67
-3.592800e-06,1.67
-3.592000e-06,1.67
-3.591200e-06,1.67
-3.590400e-06,1.65
-3.589600e-06,1.67
-3.588800e-06,1.67
-3.588000e-06,1.67
-3.587200e-06,1.69
-3.586400e-06,1.69
-3.585600e-06,1.65
-3.584800e-06,1.69
-3.584000e-06,1.67
-3.583200e-06,1.67
-3.582400e-06,1.65
-3.581600e-06,1.69
-3.580800e-06,1.67
-3.580000e-06,1.67
-3.579200e-06,1.65
-3.578400e-06,1.67
-3.577600e-06,1.67
-3.576800e-06,1.65
-3.576000e-06,1.67
-3.575200e-06,1.67
-3.574400e-06,1.67
-3.573600e-06,1.69
-3.572800e-06,1.69
-3.572000e-06,1.65
-3.571200e-06,1.69
-3.570400e-06,1.67
-3.569600e-06,1.67
-3.568800e-06,1.67
-3.568000e-06,1.67
-3.567200e-06,1.69
-3.566400e-06,1.69
-3.565600e-06,1.69
-3.564800e-06,1.69
-3.564000e-06,1.67
-3.563200e-06,1.71
-3.562400e-06,1.69
-3.561600e-06,1.67
-3.560800e-06,1.69
-3.560000e-06,1.69
-3.559200e-06,1.67
-3.558400e-06,1.69
-3.557600e-06,1.67
-3.556800e-06,1.67
-3.556000e-06,1.69
-3.555200e-06,1.67
-3.554400e-06,1.67
-3.553600e-06,1.67
-3.552800e-06,1.69
-3.552000e-06,1.67
-3.551200e-06,1.69
-3.550400e-06,1.67
-3.549600e-06,1.71
-3.548800e-06,1.69
-3.548000e-06,1.67
-3.547200e-06,1.71
-3.546400e-06,1.69
-3.545600e-06,1.69
-3.544800e-06,1.69
-3.544000e-06,1.67
-3.543200e-06,1.67
-3.542400e-06,1.69
-3.541600e-06,1.67
-3.540800e-06,1.67
-3.540000e-06,1.67
-3.539200e-06,1.71
-3.538400e-06,1.67
-3.537600e-06,1.69
-3.536800e-06,1.67
-3.536000e-06,1.67
-3.535200e-06,1.69
-3.534400e-06,1.69
-3.533600e-06,1.69
-3.532800e-06,1.69
-3.532000e-06,1.67
-3.531200e-06,1.67
-3.530400e-06,1.67
-3.529600e-06,1.69
-3.528800e-06,1.69
-3.528000e-06,1.67
-3.527200e-06,1.67
-3.526400e-06,1.69
-3.525600e-06,1.67
-3.524800e-06,1.69
-3.524000e-06,1.67
-3.523200e-06,1.67
-3.522400e-06,1.67
-3.521600e-06,1.67
-3.520800e-06,1.69
-3.520000e-06,1.69
-3.519200e-06,1.67
-3.518400e-06,1.69
-3.517600e-06,1.67
-3.516800e-06,1.69
-3.516000e-06,1.69
-3.515200e-06,1.67
-3.514400e-06,1.67
-3.513600e-06,1.67
-3.512800e-06,1.67
-3.512000e-06,1.67
-3.511200e-06,1.69
-3.510400e-06,1.65
-3.509600e-06,1.69
-3.508800e-06,1.67
-3.508000e-06,1.67
-3.507200e-06,1.65
-3.506400e-06,1.69
-3.505600e-06,1.67
-3.504800e-06,1.67
-3.504000e-06,1.67
-3.503200e-06,1.67
-3.502400e-06,1.67
-3.501600e-06,1.67
-3.500800e-06,1.69
-3.500000e-06,1.69
-3.499200e-06,1.67
-3.498400e-06,1.69
-3.497600e-06,1.67
-3.496800e-06,1.69
-3.496000e-06,1.65
-3.495200e-06,1.67
-3.494400e-06,1.69
-3.493600e-06,1.67
-3.492800e-06,1.67
-3.492000e-06,1.67
-3.491200e-06,1.67
-3.490400e-06,1.67
-3.489600e-06,1.67
-3.488800e-06,1.69
-3.488000e-06,1.67
-3.487200e-06,1.65
-3.486400e-06,1.65
-3.485600e-06,1.65
-3.484800e-06,1.69
-3.484000e-06,1.65
-3.483200e-06,1.65
-3.482400e-06,1.67
-3.481600e-06,1.65
-3.480800e-06,1.67
-3.480000e-06,1.65
-3.479200e-06,1.67
-3.478400e-06,1.67
-3.477600e-06,1.65
-3.476800e-06,1.65
-3.476000e-06,1.65
-3.475200e-06,1.67
-3.474400e-06,1.67
-3.473600e-06,1.67
-3.472800e-06,1.69
-3.472000e-06,1.67
-3.471200e-06,1.67
-3.470400e-06,1.67
-3.469600e-06,1.67
-3.468800e-06,1.69
-3.468000e-06,1.67
-3.467200e-06,1.65
-3.466400e-06,1.65
-3.465600e-06,1.69
-3.464800e-06,1.67
-3.464000e-06,1.67
-3.463200e-06,1.69
-3.462400e-06,1.67
-3.461600e-06,1.65
-3.460800e-06,1.65
-3.460000e-06,1.63
-3.459200e-06,1.65
-3.458400e-06,1.65
-3.457600e-06,1.65
-3.456800e-06,1.65
-3.456000e-06,1.65
-3.455200e-06,1.65
-3.454400e-06,1.65
-3.453600e-06,1.67
-3.452800e-06,1.67
-3.452000e-06,1.65
-3.451200e-06,1.67
-3.450400e-06,1.65
-3.449600e-06,1.63
-3.448800e-06,1.65
-3.448000e-06,1.65
-3.447200e-06,1.65
-3.446400e-06,1.65
-3.445600e-06,1.67
-3.444800e-06,1.65
-3.444000e-06,1.65
-3.443200e-06,1.65
-3.442400e-06,1.63
-3.441600e-06,1.65
-3.440800e-06,1.65
-3.440000e-06,1.65
-3.439200e-06,1.65
-3.438400e-06,1.63
-3.437600e-06,1.65
-3.436800e-06,1.63
-3.436000e-06,1.65
-3.435200e-06,1.67
-3.434400e-06,1.61
-3.433600e-06,1.65
-3.432800e-06,1.63
-3.432000e-06,1.65
-3.431200e-06,1.65
-3.430400e-06,1.63
-3.429600e-06,1.67
-3.428800e-06,1.63
-3.428000e-06,1.65
-3.427200e-06,1.63
-3.426400e-06,1.63
-3.425600e-06,1.63
-3.424800e-06,1.65
-3.424000e-06,1.63
-3.423200e-06,1.65
-3.422400e-06,1.63
-3.421600e-06,1.61
-3.420800e-06,1.65
-3.420000e-06,1.63
-3.419200e-06,1.65
-3.418400e-06,1.61
-3.417600e-06,1.63
-3.416800e-06,1.63
-3.416000e-06,1.65
-3.415200e-06,1.63
-3.414400e-06,1.61
-3.413600e-06,1.61
-3.412800e-06,1.61
-3.412000e-06,1.59
-3.411200e-06,1.61
-3.410400e-06,1.63
-3.409600e-06,1.63
-3.408800e-06,1.65
-3.408000e-06,1.63
-3.407200e-06,1.63
-3.406400e-06,1.61
-3.405600e-06,1.61
-3.404800e-06,1.63
-3.404000e-06,1.61
-3.403200e-06,1.59
-3.402400e-06,1.59
-3.401600e-06,1.61
-3.400800e-06,1.59
-3.400000e-06,1.59
-3.399200e-06,1.59
-3.398400e-06,1.63
-3.397600e-06,1.63
-3.396800e-06,1.61
-3.396000e-06,1.59
-3.395200e-06,1.61
-3.394400e-06,1.61
-3.393600e-06,1.61
-3.392800e-06,1.61
-3.392000e-06,1.61
-3.391200e-06,1.59
-3.390400e-06,1.61
-3.389600e-06,1.59
-3.388800e-06,1.61
-3.388000e-06,1.61
-3.387200e-06,1.61
-3.386400e-06,1.61
-3.385600e-06,1.59
-3.384800e-06,1.59
-3.384000e-06,1.59
-3.383200e-06,1.61
-3.382400e-06,1.61
-3.381600e-06,1.57
-3.380800e-06,1.57
-3.380000e-06,1.57
-3.379200e-06,1.59
-3.378400e-06,1.57
-3.377600e-06,1.59
-3.376800e-06,1.59
-3.376000e-06,1.59
-3.375200e-06,1.57
-3.374400e-06,1.59
-3.373600e-06,1.59
-3.372800e-06,1.59
-3.372000e-06,1.55
-3.371200e-06,1.59
-3.370400e-06,1.57
-3.369600e-06,1.57
-3.368800e-06,1.57
-3.368000e-06,1.55
-3.367200e-06,1.57
-3.366400e-06,1.55
-3.365600e-06,1.59
-3.364800e-06,1.55
-3.364000e-06,1.55
-3.363200e-06,1.55
-3.362400e-06,1.55
-3.361600e-06,1.55
-3.360800e-06,1.57
-3.360000e-06,1.57
-3.359200e-06,1.57
-3.358400e-06,1.55
-3.357600e-06,1.55
-3.356800e-06,1.55
-3.356000e-06,1.53
-3.355200e-06,1.55
-3.354400e-06,1.55
-3.353600e-06,1.59
-3.352800e-06,1.53
-3.352000e-06,1.55
-3.351200e-06,1.57
-3.350400e-06,1.53
-3.349600e-06,1.55
-3.348800e-06,1.53
-3.348000e-06,1.55
-3.347200e-06,1.53
-3.346400e-06,1.53
-3.345600e-06,1.53
-3.344800e-06,1.53
-3.344000e-06,1.51
-3.343200e-06,1.53
-3.342400e-06,1.53
-3.341600e-06,1.55
-3.340800e-06,1.53
-3.340000e-06,1.53
-3.339200e-06,1.53
-3.338400e-06,1.53
-3.337600e-06,1.51
-3.336800e-06,1.51
-3.336000e-06,1.53
-3.335200e-06,1.53
-3.334400e-06,1.53
-3.333600e-06,1.51
-3.332800e-06,1.51
-3.332000e-06,1.51
-3.331200e-06,1.53
-3.330400e-06,1.51
-3.329600e-06,1.53
-3.328800e-06,1.51
-3.328000e-06,1.51
-3.327200e-06,1.51
-3.326400e-06,1.49
-3.325600e-06,1.51
-3.324800e-06,1.49
-3.324000e-06,1.49
-3.323200e-06,1.51
-3.322400e-06,1.47
-3.321600e-06,1.51
-3.320800e-06,1.51
-3.320000e-06,1.49
-3.319200e-06,1.51
-3.318400e-06,1.51
-3.317600e-06,1.49
-3.316800e-06,1.49
-3.316000e-06,1.49
-3.315200e-06,1.49
-3.314400e-06,1.49
-3.313600e-06,1.51
-3.312800e-06,1.49
-3.312000e-06,1.49
-3.311200e-06,1.47
-3.310400e-06,1.49
-3.309600e-06,1.49
-3.308800e-06,1.49
-3.308000e-06,1.47
-3.307200e-06,1.49
-3.306400e-06,1.47
-3.305600e-06,1.45
-3.304800e-06,1.45
-3.304000e-06,1.47
-3.303200e-06,1.49
-3.302400e-06,1.47
-3.301600e-06,1.47
-3.300800e-06,1.47
-3.300000e-06,1.47
-3.299200e-06,1.47
-3.298400e-06,1.47
-3.297600e-06,1.45
-3.296800e-06,1.45
-3.296000e-06,1.45
-3.295200e-06,1.45
-3.294400e-06,1.45
-3.293600e-06,1.47
-3.292800e-06,1.45
-3.292000e-06,1.45
-3.291200e-06,1.45
-3.290400e-06,1.45
-3.289600e-06,1.45
-3.288800e-06,1.45
-3.288000e-06,1.45
-3.287200e-06,1.45
-3.286400e-06,1.43
-3.285600e-06,1.43
-3.284800e-06,1.45
-3.284000e-06,1.47
-3.283200e-06,1.43
-3.282400e-06,1.45
-3.281600e-06,1.43
-3.280800e-06,1.41
-3.280000e-06,1.43
-3.279200e-06,1.43
-3.278400e-06,1.41
-3.277600e-06,1.43
-3.276800e-06,1.41
-3.276000e-06,1.41
-3.275200e-06,1.43
-3.274400e-06,1.43
-3.273600e-06,1.43
-3.272800e-06,1.41
-3.272000e-06,1.41
-3.271200e-06,1.43
-3.270400e-06,1.41
-3.269600e-06,1.43
-3.268800e-06,1.43
-3.268000e-06,1.41
-3.267200e-06,1.39
-3.266400e-06,1.37
-3.265600e-06,1.41
-3.264800e-06,1.41
-3.264000e-06,1.41
-3.263200e-06,1.41
-3.262400e-06,1.41
-3.261600e-06,1.41
-3.260800e-06,1.37
-3.260000e-06,1.39
-3.259200e-06,1.37
-3.258400e-06,1.39
-3.257600e-06,1.41
-3.256800e-06,1.39
-3.256000e-06,1.39
-3.255200e-06,1.39
-3.254400e-06,1.35
-3.253600e-06,1.41
-3.252800e-06,1.39
-3.252000e-06,1.39
-3.251200e-06,1.39
-3.250400e-06,1.39
-3.249600e-06,1.37
-3.248800e-06,1.37
-3.248000e-06,1.35
-3.247200e-06,1.35
-3.246400e-06,1.35
-3.245600e-06,1.35
-3.244800e-06,1.37
-3.244000e-06,1.37
-3.243200e-06,1.37
-3.242400e-06,1.35
-3.241600e-06,1.35
-3.240800e-06,1.37
-3.240000e-06,1.35
-3.239200e-06,1.35
-3.238400e-06,1.37
-3.237600e-06,1.35
-3.236800e-06,1.33
-3.236000e-06,1.35
-3.235200e-06,1.33
-3.234400e-06,1.35
-3.233600e-06,1.33
-3.232800e-06,1.33
-3.232000e-06,1.31
-3.231200e-06,1.31
-3.230400e-06,1.33
-3.229600e-06,1.33
-3.228800e-06,1.33
-3.228000e-06,1.33
-3.227200e-06,1.33
-3.226400e-06,1.33
-3.225600e-06,1.33
-3.224800e-06,1.35
-3.224000e-06,1.31
-3.223200e-06,1.29
-3.222400e-06,1.31
-3.221600e-06,1.29
-3.220800e-06,1.31
-3.220000e-06,1.31
-3.219200e-06,1.29
-3.218400e-06,1.31
-3.217600e-06,1.29
-3.216800e-06,1.31
-3.216000e-06,1.29
-3.215200e-06,1.29
-3.214400e-06,1.31
-3.213600e-06,1.31
-3.212800e-06,1.31
-3.212000e-06,1.31
-3.211200e-06,1.29
-3.210400e-06,1.29
-3.209600e-06,1.29
-3.208800e-06,1.29
-3.208000e-06,1.29
-3.207200e-06,1.27
-3.206400e-06,1.27
-3.205600e-06,1.25
-3.204800e-06,1.27
-3.204000e-06,1.25
-3.203200e-06,1.27
-3.202400e-06,1.27
-3.201600e-06,1.27
-3.200800e-06,1.27
-3.200000e-06,1.29
-3.199200e-06,1.29
-3.198400e-06,1.27
-3.197600e-06,1.25
-3.196800e-06,1.27
-3.196000e-06,1.27
-3.195200e-06,1.29
-3.194400e-06,1.27
-3.193600e-06,1.23
-3.192800e-06,1.25
-3.192000e-06,1.23
-3.191200e-06,1.23
-3.190400e-06,1.21
-3.189600e-06,1.21
-3.188800e-06,1.21
-3.188000e-06,1.25
-3.187200e-06,1.23
-3.186400e-06,1.23
-3.185600e-06,1.23
-3.184800e-06,1.23
-3.184000e-06,1.21
-3.183200e-06,1.23
-3.182400e-06,1.23
-3.181600e-06,1.23
-3.180800e-06,1.21
-3.180000e-06,1.21
-3.179200e-06,1.21
-3.178400e-06,1.21
-3.177600e-06,1.23
-3.176800e-06,1.21
-3.176000e-06,1.21
-3.175200e-06,1.21
-3.174400e-06,1.21
-3.173600e-06,1.21
-3.172800e-06,1.17
