measurements/ADC Measurements/tek0002.csv

Model,MDO3024
Firmware Version,1.20

Waveform Type,ANALOG
Point Format,Y
Horizontal Units,s
Horizontal Scale,2e-07
Horizontal Delay,0.0527
Sample Interval,4e-10
Record Length,10000
Gating,0.0% to 100.0%
Probe Attenuation,10
Vertical Units,V
Vertical Offset,0
Vertical Scale,0.5
Vertical Position,-1.04
,
,
,
Label,
TIME,CH1
5.269800e-02,0.62
5.269800e-02,0.6
5.269800e-02,0.62
5.269800e-02,0.62
5.269800e-02,0.6
5.269800e-02,0.62
5.269800e-02,0.6
5.269800e-02,0.6
5.269800e-02,0.62
5.269800e-02,0.58
5.269800e-02,0.58
5.269800e-02,0.58
5.269800e-02,0.58
5.269801e-02,0.58
5.269801e-02,0.56
5.269801e-02,0.56
5.269801e-02,0.56
5.269801e-02,0.56
5.269801e-02,0.54
5.269801e-02,0.56
5.269801e-02,0.56
5.269801e-02,0.56
5.269801e-02,0.58
5.269801e-02,0.58
5.269801e-02,0.56
5.269801e-02,0.56
5.269801e-02,0.56
5.269801e-02,0.56
5.269801e-02,0.54
5.269801e-02,0.56
5.269801e-02,0.54
5.269801e-02,0.56
5.269801e-02,0.56
5.269801e-02,0.52
5.269801e-02,0.52
5.269801e-02,0.54
5.269801e-02,0.5
5.269801e-02,0.52
5.269802e-02,0.52
5.269802e-02,0.52
5.269802e-02,0.5
5.269802e-02,0.52
5.269802e-02,0.52
5.269802e-02,0.52
5.269802e-02,0.52
5.269802e-02,0.52
5.269802e-02,0.52
5.269802e-02,0.52
5.269802e-02,0.52
5.269802e-02,0.5
5.269802e-02,0.5
5.269802e-02,0.5
5.269802e-02,0.5
5.269802e-02,0.5
5.269802e-02,0.48
5.269802e-02,0.48
5.269802e-02,0.48
5.269802e-02,0.48
5.269802e-02,0.48
5.269802e-02,0.44
5.269802e-02,0.46
5.269802e-02,0.44
5.269802e-02,0.46
5.269803e-02,0.44
5.269803e-02,0.46
5.269803e-02,0.46
5.269803e-02,0.46
5.269803e-02,0.48
5.269803e-02,0.46
5.269803e-02,0.46
5.269803e-02,0.48
5.269803e-02,0.46
5.269803e-02,0.44
5.269803e-02,0.46
5.269803e-02,0.46
5.269803e-02,0.44
5.269803e-02,0.44
5.269803e-02,0.4
5.269803e-02,0.42
5.269803e-02,0.42
5.269803e-02,0.42
5.269803e-02,0.4
5.269803e-02,0.4
5.269803e-02,0.42
5.269803e-02,0.42
5.269803e-02,0.42
5.269803e-02,0.4
5.269803e-02,0.42
5.269804e-02,0.42
5.269804e-02,0.4
5.269804e-02,0.4
5.269804e-02,0.4
5.269804e-02,0.4
5.269804e-02,0.4
5.269804e-02,0.38
5.269804e-02,0.38
5.269804e-02,0.38
5.269804e-02,0.4
5.269804e-02,0.38
5.269804e-02,0.38
5.269804e-02,0.38
5.269804e-02,0.38
5.269804e-02,0.36
5.269804e-02,0.38
5.269804e-02,0.36
5.269804e-02,0.36
5.269804e-02,0.38
5.269804e-02,0.36
5.269804e-02,0.38
5.269804e-02,0.38
5.269804e-02,0.38
5.269804e-02,0.36
5.269804e-02,0.36
5.269805e-02,0.38
5.269805e-02,0.36
5.269805e-02,0.36
5.269805e-02,0.34
5.269805e-02,0.34
5.269805e-02,0.38
5.269805e-02,0.34
5.269805e-02,0.34
5.269805e-02,0.34
5.269805e-02,0.36
5.269805e-02,0.34
5.269805e-02,0.32
5.269805e-02,0.38
5.269805e-02,0.36
5.269805e-02,0.32
5.269805e-02,0.34
5.269805e-02,0.34
5.269805e-02,0.32
5.269805e-02,0.34
5.269805e-02,0.36
5.269805e-02,0.32
5.269805e-02,0.32
5.269805e-02,0.32
5.269805e-02,0.32
5.269805e-02,0.32
5.269806e-02,0.34
5.269806e-02,0.32
5.269806e-02,0.32
5.269806e-02,0.32
5.269806e-02,0.32
5.269806e-02,0.32
5.269806e-02,0.3
5.269806e-02,0.32
5.269806e-02,0.3
5.269806e-02,0.32
5.269806e-02,0.32
5.269806e-02,0.3
5.269806e-02,0.32
5.269806e-02,0.32
5.269806e-02,0.32
5.269806e-02,0.3
5.269806e-02,0.3
5.269806e-02,0.32
5.269806e-02,0.3
5.269806e-02,0.3
5.269806e-02,0.3
5.269806e-02,0.3
5.269806e-02,0.3
5.269806e-02,0.3
5.269806e-02,0.3
5.269807e-02,0.3
5.269807e-02,0.28
5.269807e-02,0.28
5.269807e-02,0.28
5.269807e-02,0.28
5.269807e-02,0.28
5.269807e-02,0.28
5.269807e-02,0.28
5.269807e-02,0.3
5.269807e-02,0.3
5.269807e-02,0.28
5.269807e-02,0.32
5.269807e-02,0.3
5.269807e-02,0.3
5.269807e-02,0.28
5.269807e-02,0.28
5.269807e-02,0.28
5.269807e-02,0.28
5.269807e-02,0.28
5.269807e-02,0.28
5.269807e-02,0.28
5.269807e-02,0.26
5.269807e-02,0.28
5.269807e-02,0.26
5.269807e-02,0.26
5.269808e-02,0.24
5.269808e-02,0.26
5.269808e-02,0.26
5.269808e-02,0.24
5.269808e-02,0.26
5.269808e-02,0.22
5.269808e-02,0.26
5.269808e-02,0.24
5.269808e-02,0.24
5.269808e-02,0.22
5.269808e-02,0.24
5.269808e-02,0.24
5.269808e-02,0.24
5.269808e-02,0.24
5.269808e-02,0.22
5.269808e-02,0.22
5.269808e-02,0.22
5.269808e-02,0.2
5.269808e-02,0.22
5.269808e-02,0.22
5.269808e-02,0.22
5.269808e-02,0.24
5.269808e-02,0.24
5.269808e-02,0.22
5.269808e-02,0.24
5.269809e-02,0.24
5.269809e-02,0.22
5.269809e-02,0.24
5.269809e-02,0.24
5.269809e-02,0.22
5.269809e-02,0.22
5.269809e-02,0.22
5.269809e-02,0.22
5.269809e-02,0.22
5.269809e-02,0.22
5.269809e-02,0.22
5.269809e-02,0.22
5.269809e-02,0.22
5.269809e-02,0.22
5.269809e-02,0.22
5.269809e-02,0.22
5.269809e-02,0.2
5.269809e-02,0.22
5.269809e-02,0.18
5.269809e-02,0.22
5.269809e-02,0.2
5.269809e-02,0.18
5.269809e-02,0.22
5.269809e-02,0.2
5.269809e-02,0.22
5.269810e-02,0.18
5.269810e-02,0.18
5.269810e-02,0.2
5.269810e-02,0.18
5.269810e-02,0.2
5.269810e-02,0.2
5.269810e-02,0.2
5.269810e-02,0.18
5.269810e-02,0.2
5.269810e-02,0.18
5.269810e-02,0.18
5.269810e-02,0.14
5.269810e-02,0.18
5.269810e-02,0.2
5.269810e-02,0.2
5.269810e-02,0.18
5.269810e-02,0.2
5.269810e-02,0.16
5.269810e-02,0.18
5.269810e-02,0.2
5.269810e-02,0.18
5.269810e-02,0.18
5.269810e-02,0.2
5.269810e-02,0.2
5.269810e-02,0.2
5.269811e-02,0.22
5.269811e-02,0.18
5.269811e-02,0.2
5.269811e-02,0.18
5.269811e-02,0.18
5.269811e-02,0.16
5.269811e-02,0.16
5.269811e-02,0.2
5.269811e-02,0.16
5.269811e-02,0.18
5.269811e-02,0.18
5.269811e-02,0.16
5.269811e-02,0.16
5.269811e-02,0.16
5.269811e-02,0.18
5.269811e-02,0.16
5.269811e-02,0.16
5.269811e-02,0.16
5.269811e-02,0.16
5.269811e-02,0.16
5.269811e-02,0.14
5.269811e-02,0.16
5.269811e-02,0.16
5.269811e-02,0.16
5.269811e-02,0.16
5.269812e-02,0.16
5.269812e-02,0.16
5.269812e-02,0.14
5.269812e-02,0.18
5.269812e-02,0.16
5.269812e-02,0.16
5.269812e-02,0.16
5.269812e-02,0.14
5.269812e-02,0.16
5.269812e-02,0.16
5.269812e-02,0.18
5.269812e-02,0.18
5.269812e-02,0.18
5.269812e-02,0.16
5.269812e-02,0.18
5.269812e-02,0.18
5.269812e-02,0.16
5.269812e-02,0.18
5.269812e-02,0.16
5.269812e-02,0.16
5.269812e-02,0.16
5.269812e-02,0.2
5.269812e-02,0.16
5.269812e-02,0.16
5.269812e-02,0.16
5.269813e-02,0.16
5.269813e-02,0.16
5.269813e-02,0.16
5.269813e-02,0.16
5.269813e-02,0.14
5.269813e-02,0.18
5.269813e-02,0.16
5.269813e-02,0.16
5.269813e-02,0.16
5.269813e-02,0.14
5.269813e-02,0.16
5.269813e-02,0.16
5.269813e-02,0.14
5.269813e-02,0.16
5.269813e-02,0.16
5.269813e-02,0.14
5.269813e-02,0.16
5.269813e-02,0.16
5.269813e-02,0.18
5.269813e-02,0.16
5.269813e-02,0.16
5.269813e-02,0.16
5.269813e-02,0.16
5.269813e-02,0.16
5.269813e-02,0.18
5.269814e-02,0.16
5.269814e-02,0.16
5.269814e-02,0.18
5.269814e-02,0.16
5.269814e-02,0.16
5.269814e-02,0.16
5.269814e-02,0.16
5.269814e-02,0.18
5.269814e-02,0.18
5.269814e-02,0.18
5.269814e-02,0.16
5.269814e-02,0.16
5.269814e-02,0.18
5.269814e-02,0.16
5.269814e-02,0.18
5.269814e-02,0.18
5.269814e-02,0.18
5.269814e-02,0.18
5.269814e-02,0.18
5.269814e-02,0.2
5.269814e-02,0.18
5.269814e-02,0.16
5.269814e-02,0.18
5.269814e-02,0.18
5.269814e-02,0.18
5.269815e-02,0.16
5.269815e-02,0.18
5.269815e-02,0.18
5.269815e-02,0.18
5.269815e-02,0.2
5.269815e-02,0.2
5.269815e-02,0.18
5.269815e-02,0.16
5.269815e-02,0.18
5.269815e-02,0.18
5.269815e-02,0.18
5.269815e-02,0.18
5.269815e-02,0.2
5.269815e-02,0.2
5.269815e-02,0.2
5.269815e-02,0.2
5.269815e-02,0.2
5.269815e-02,0.2
5.269815e-02,0.22
5.269815e-02,0.2
5.269815e-02,0.18
5.269815e-02,0.2
5.269815e-02,0.22
5.269815e-02,0.2
5.269815e-02,0.22
5.269816e-02,0.22
5.269816e-02,0.2
5.269816e-02,0.22
5.269816e-02,0.18
5.269816e-02,0.2
5.269816e-02,0.2
5.269816e-02,0.22
5.269816e-02,0.22
5.269816e-02,0.22
5.269816e-02,0.22
5.269816e-02,0.22
5.269816e-02,0.22
5.269816e-02,0.22
5.269816e-02,0.24
5.269816e-02,0.22
5.269816e-02,0.22
5.269816e-02,0.22
5.269816e-02,0.22
5.269816e-02,0.22
5.269816e-02,0.24
5.269816e-02,0.22
5.269816e-02,0.24
5.269816e-02,0.24
5.269816e-02,0.24
5.269816e-02,0.24
5.269817e-02,0.22
5.269817e-02,0.22
5.269817e-02,0.26
5.269817e-02,0.24
5.269817e-02,0.24
5.269817e-02,0.24
5.269817e-02,0.24
5.269817e-02,0.24
5.269817e-02,0.24
5.269817e-02,0.26
5.269817e-02,0.26
5.269817e-02,0.26
5.269817e-02,0.26
5.269817e-02,0.26
5.269817e-02,0.26
5.269817e-02,0.28
5.269817e-02,0.26
5.269817e-02,0.28
5.269817e-02,0.3
5.269817e-02,0.28
5.269817e-02,0.28
5.269817e-02,0.3
5.269817e-02,0.28
5.269817e-02,0.28
5.269817e-02,0.28
5.269818e-02,0.28
5.269818e-02,0.3
5.269818e-02,0.3
5.269818e-02,0.32
5.269818e-02,0.3
5.269818e-02,0.3
5.269818e-02,0.3
5.269818e-02,0.3
5.269818e-02,0.3
5.269818e-02,0.28
5.269818e-02,0.28
5.269818e-02,0.3
5.269818e-02,0.28
5.269818e-02,0.3
5.269818e-02,0.3
5.269818e-02,0.32
5.269818e-02,0.32
5.269818e-02,0.32
5.269818e-02,0.32
5.269818e-02,0.32
5.269818e-02,0.32
5.269818e-02,0.34
5.269818e-02,0.32
5.269818e-02,0.34
5.269818e-02,0.34
5.269819e-02,0.32
5.269819e-02,0.34
5.269819e-02,0.32
5.269819e-02,0.36
5.269819e-02,0.34
5.269819e-02,0.34
5.269819e-02,0.36
5.269819e-02,0.34
5.269819e-02,0.36
5.269819e-02,0.36
5.269819e-02,0.34
5.269819e-02,0.36
5.269819e-02,0.38
5.269819e-02,0.36
5.269819e-02,0.36
5.269819e-02,0.36
5.269819e-02,0.38
5.269819e-02,0.36
5.269819e-02,0.4
5.269819e-02,0.38
5.269819e-02,0.38
5.269819e-02,0.4
5.269819e-02,0.4
5.269819e-02,0.38
5.269819e-02,0.4
5.269820e-02,0.4
5.269820e-02,0.38
5.269820e-02,0.4
5.269820e-02,0.42
5.269820e-02,0.4
5.269820e-02,0.4
5.269820e-02,0.42
5.269820e-02,0.4
5.269820e-02,0.42
5.269820e-02,0.4
5.269820e-02,0.44
5.269820e-02,0.42
5.269820e-02,0.42
5.269820e-02,0.42
5.269820e-02,0.4
5.269820e-02,0.44
5.269820e-02,0.46
5.269820e-02,0.44
5.269820e-02,0.44
5.269820e-02,0.44
5.269820e-02,0.42
5.269820e-02,0.46
5.269820e-02,0.46
5.269820e-02,0.46
5.269820e-02,0.44
5.269821e-02,0.46
5.269821e-02,0.46
5.269821e-02,0.48
5.269821e-02,0.44
5.269821e-02,0.46
5.269821e-02,0.48
5.269821e-02,0.46
5.269821e-02,0.5
5.269821e-02,0.46
5.269821e-02,0.48
5.269821e-02,0.48
5.269821e-02,0.5
5.269821e-02,0.48
5.269821e-02,0.5
5.269821e-02,0.5
5.269821e-02,0.48
5.269821e-02,0.48
5.269821e-02,0.48
5.269821e-02,0.5
5.269821e-02,0.5
5.269821e-02,0.5
5.269821e-02,0.5
5.269821e-02,0.5
5.269821e-02,0.5
5.269821e-02,0.5
5.269822e-02,0.52
5.269822e-02,0.5
5.269822e-02,0.52
5.269822e-02,0.54
5.269822e-02,0.54
5.269822e-02,0.56
5.269822e-02,0.52
5.269822e-02,0.54
5.269822e-02,0.52
5.269822e-02,0.52
5.269822e-02,0.54
5.269822e-02,0.54
5.269822e-02,0.54
5.269822e-02,0.56
5.269822e-02,0.56
5.269822e-02,0.58
5.269822e-02,0.56
5.269822e-02,0.56
5.269822e-02,0.56
5.269822e-02,0.56
5.269822e-02,0.58
5.269822e-02,0.58
5.269822e-02,0.58
5.269822e-02,0.58
5.269822e-02,0.6
5.269823e-02,0.58
5.269823e-02,0.58
5.269823e-02,0.6
5.269823e-02,0.62
5.269823e-02,0.6
5.269823e-02,0.6
5.269823e-02,0.6
5.269823e-02,0.6
5.269823e-02,0.6
5.269823e-02,0.6
5.269823e-02,0.62
5.269823e-02,0.62
5.269823e-02,0.64
5.269823e-02,0.62
5.269823e-02,0.64
5.269823e-02,0.62
5.269823e-02,0.64
5.269823e-02,0.62
5.269823e-02,0.62
5.269823e-02,0.64
5.269823e-02,0.64
5.269823e-02,0.62
5.269823e-02,0.64
5.269823e-02,0.66
5.269823e-02,0.64
5.269824e-02,0.66
5.269824e-02,0.66
5.269824e-02,0.66
5.269824e-02,0.66
5.269824e-02,0.66
5.269824e-02,0.66
5.269824e-02,0.66
5.269824e-02,0.68
5.269824e-02,0.68
5.269824e-02,0.7
5.269824e-02,0.68
5.269824e-02,0.7
5.269824e-02,0.68
5.269824e-02,0.68
5.269824e-02,0.72
5.269824e-02,0.72
5.269824e-02,0.7
5.269824e-02,0.7
5.269824e-02,0.7
5.269824e-02,0.7
5.269824e-02,0.72
5.269824e-02,0.74
5.269824e-02,0.76
5.269824e-02,0.74
5.269824e-02,0.74
5.269825e-02,0.74
5.269825e-02,0.74
5.269825e-02,0.76
5.269825e-02,0.74
5.269825e-02,0.76
5.269825e-02,0.76
5.269825e-02,0.76
5.269825e-02,0.72
5.269825e-02,0.76
5.269825e-02,0.74
5.269825e-02,0.78
5.269825e-02,0.78
5.269825e-02,0.78
5.269825e-02,0.76
5.269825e-02,0.78
5.269825e-02,0.78
5.269825e-02,0.8
5.269825e-02,0.8
5.269825e-02,0.8
5.269825e-02,0.8
5.269825e-02,0.8
5.269825e-02,0.78
5.269825e-02,0.8
5.269825e-02,0.82
5.269825e-02,0.82
5.269826e-02,0.8
5.269826e-02,0.8
5.269826e-02,0.82
5.269826e-02,0.82
5.269826e-02,0.8
5.269826e-02,0.82
5.269826e-02,0.84
5.269826e-02,0.82
5.269826e-02,0.82
5.269826e-02,0.84
5.269826e-02,0.84
5.269826e-02,0.82
5.269826e-02,0.84
5.269826e-02,0.84
5.269826e-02,0.84
5.269826e-02,0.86
5.269826e-02,0.86
5.269826e-02,0.86
5.269826e-02,0.88
5.269826e-02,0.86
5.269826e-02,0.88
5.269826e-02,0.86
5.269826e-02,0.9
5.269826e-02,0.88
5.269826e-02,0.88
5.269827e-02,0.88
5.269827e-02,0.88
5.269827e-02,0.9
5.269827e-02,0.9
5.269827e-02,0.9
5.269827e-02,0.88
5.269827e-02,0.88
5.269827e-02,0.92
5.269827e-02,0.9
5.269827e-02,0.9
5.269827e-02,0.92
5.269827e-02,0.92
5.269827e-02,0.92
5.269827e-02,0.94
5.269827e-02,0.92
5.269827e-02,0.94
5.269827e-02,0.94
5.269827e-02,0.94
5.269827e-02,0.92
5.269827e-02,0.96
5.269827e-02,0.96
5.269827e-02,0.96
5.269827e-02,0.98
5.269827e-02,0.96
5.269827e-02,0.96
5.269828e-02,0.98
5.269828e-02,0.96
5.269828e-02,0.98
5.269828e-02,0.98
5.269828e-02,0.98
5.269828e-02,0.98
5.269828e-02,1
5.269828e-02,0.98
5.269828e-02,0.98
5.269828e-02,1
5.269828e-02,1
5.269828e-02,1
5.269828e-02,1
5.269828e-02,1
5.269828e-02,1.02
5.269828e-02,1.02
5.269828e-02,1.02
5.269828e-02,1
5.269828e-02,1.02
5.269828e-02,1.04
5.269828e-02,1.02
5.269828e-02,1.02
5.269828e-02,1.06
5.269828e-02,1.04
5.269828e-02,1.04
5.269829e-02,1.04
5.269829e-02,1.06
5.269829e-02,1.04
5.269829e-02,1.04
5.269829e-02,1.06
5.269829e-02,1.08
5.269829e-02,1.06
5.269829e-02,1.06
5.269829e-02,1.08
5.269829e-02,1.06
5.269829e-02,1.1
5.269829e-02,1.06
5.269829e-02,1.08
5.269829e-02,1.1
5.269829e-02,1.08
5.269829e-02,1.08
5.269829e-02,1.1
5.269829e-02,1.08
5.269829e-02,1.12
5.269829e-02,1.12
5.269829e-02,1.1
5.269829e-02,1.12
5.269829e-02,1.1
5.269829e-02,1.1
5.269829e-02,1.12
5.269830e-02,1.1
5.269830e-02,1.12
5.269830e-02,1.12
5.269830e-02,1.12
5.269830e-02,1.12
5.269830e-02,1.14
5.269830e-02,1.12
5.269830e-02,1.14
5.269830e-02,1.12
5.269830e-02,1.14
5.269830e-02,1.12
5.269830e-02,1.16
5.269830e-02,1.16
5.269830e-02,1.16
5.269830e-02,1.14
5.269830e-02,1.14
5.269830e-02,1.16
5.269830e-02,1.16
5.269830e-02,1.16
5.269830e-02,1.16
5.269830e-02,1.16
5.269830e-02,1.16
5.269830e-02,1.16
5.269830e-02,1.2
5.269830e-02,1.18
5.269831e-02,1.2
5.269831e-02,1.18
5.269831e-02,1.18
5.269831e-02,1.18
5.269831e-02,1.18
5.269831e-02,1.2
5.269831e-02,1.22
5.269831e-02,1.22
5.269831e-02,1.2
5.269831e-02,1.2
5.269831e-02,1.2
5.269831e-02,1.22
5.269831e-02,1.22
5.269831e-02,1.22
5.269831e-02,1.24
5.269831e-02,1.22
5.269831e-02,1.2
5.269831e-02,1.24
5.269831e-02,1.26
5.269831e-02,1.24
5.269831e-02,1.26
5.269831e-02,1.26
5.269831e-02,1.26
5.269831e-02,1.24
5.269831e-02,1.22
5.269832e-02,1.24
5.269832e-02,1.26
5.269832e-02,1.26
5.269832e-02,1.28
5.269832e-02,1.28
5.269832e-02,1.26
5.269832e-02,1.28
5.269832e-02,1.28
5.269832e-02,1.26
5.269832e-02,1.28
5.269832e-02,1.28
5.269832e-02,1.28
5.269832e-02,1.3
5.269832e-02,1.28
5.269832e-02,1.28
5.269832e-02,1.3
5.269832e-02,1.28
5.269832e-02,1.3
5.269832e-02,1.3
5.269832e-02,1.3
5.269832e-02,1.3
5.269832e-02,1.32
5.269832e-02,1.3
5.269832e-02,1.32
5.269832e-02,1.3
5.269833e-02,1.3
5.269833e-02,1.34
5.269833e-02,1.34
5.269833e-02,1.34
5.269833e-02,1.34
5.269833e-02,1.32
5.269833e-02,1.32
5.269833e-02,1.34
5.269833e-02,1.32
5.269833e-02,1.34
5.269833e-02,1.34
5.269833e-02,1.34
5.269833e-02,1.36
5.269833e-02,1.36
5.269833e-02,1.34
5.269833e-02,1.34
5.269833e-02,1.36
5.269833e-02,1.36
5.269833e-02,1.36
5.269833e-02,1.36
5.269833e-02,1.36
5.269833e-02,1.36
5.269833e-02,1.36
5.269833e-02,1.34
5.269833e-02,1.36
5.269834e-02,1.38
5.269834e-02,1.38
5.269834e-02,1.36
5.269834e-02,1.38
5.269834e-02,1.4
5.269834e-02,1.38
5.269834e-02,1.38
5.269834e-02,1.4
5.269834e-02,1.4
5.269834e-02,1.38
5.269834e-02,1.4
5.269834e-02,1.42
5.269834e-02,1.4
5.269834e-02,1.4
5.269834e-02,1.42
5.269834e-02,1.42
5.269834e-02,1.4
5.269834e-02,1.4
5.269834e-02,1.42
5.269834e-02,1.42
5.269834e-02,1.4
5.269834e-02,1.4
5.269834e-02,1.42
5.269834e-02,1.44
5.269834e-02,1.42
5.269835e-02,1.4
5.269835e-02,1.42
5.269835e-02,1.42
5.269835e-02,1.42
5.269835e-02,1.42
5.269835e-02,1.42
5.269835e-02,1.44
5.269835e-02,1.42
5.269835e-02,1.44
5.269835e-02,1.44
5.269835e-02,1.46
5.269835e-02,1.44
5.269835e-02,1.46
5.269835e-02,1.46
5.269835e-02,1.46
5.269835e-02,1.46
5.269835e-02,1.44
5.269835e-02,1.48
5.269835e-02,1.48
5.269835e-02,1.48
5.269835e-02,1.46
5.269835e-02,1.46
5.269835e-02,1.46
5.269835e-02,1.48
5.269835e-02,1.46
5.269836e-02,1.44
5.269836e-02,1.46
5.269836e-02,1.46
5.269836e-02,1.48
5.269836e-02,1.46
5.269836e-02,1.46
5.269836e-02,1.48
5.269836e-02,1.48
5.269836e-02,1.48
5.269836e-02,1.5
5.269836e-02,1.48
5.269836e-02,1.5
5.269836e-02,1.5
5.269836e-02,1.5
5.269836e-02,1.48
5.269836e-02,1.5
5.269836e-02,1.48
5.269836e-02,1.5
5.269836e-02,1.5
5.269836e-02,1.5
5.269836e-02,1.5
5.269836e-02,1.5
5.269836e-02,1.5
5.269836e-02,1.5
5.269836e-02,1.48
5.269837e-02,1.5
5.269837e-02,1.52
5.269837e-02,1.5
5.269837e-02,1.5
5.269837e-02,1.5
5.269837e-02,1.5
5.269837e-02,1.48
5.269837e-02,1.5
5.269837e-02,1.52
5.269837e-02,1.52
5.269837e-02,1.52
5.269837e-02,1.52
5.269837e-02,1.52
5.269837e-02,1.52
5.269837e-02,1.52
5.269837e-02,1.52
5.269837e-02,1.52
5.269837e-02,1.52
5.269837e-02,1.54
5.269837e-02,1.54
5.269837e-02,1.52
5.269837e-02,1.52
5.269837e-02,1.54
5.269837e-02,1.54
5.269837e-02,1.54
5.269838e-02,1.54
5.269838e-02,1.52
5.269838e-02,1.52
5.269838e-02,1.54
5.269838e-02,1.54
5.269838e-02,1.52
5.269838e-02,1.52
5.269838e-02,1.54
5.269838e-02,1.54
5.269838e-02,1.52
5.269838e-02,1.54
5.269838e-02,1.54
5.269838e-02,1.54
5.269838e-02,1.56
5.269838e-02,1.54
5.269838e-02,1.54
5.269838e-02,1.54
5.269838e-02,1.54
5.269838e-02,1.56
5.269838e-02,1.56
5.269838e-02,1.52
5.269838e-02,1.54
5.269838e-02,1.54
5.269838e-02,1.54
5.269838e-02,1.56
5.269839e-02,1.56
5.269839e-02,1.54
5.269839e-02,1.54
5.269839e-02,1.54
5.269839e-02,1.54
5.269839e-02,1.56
5.269839e-02,1.56
5.269839e-02,1.54
5.269839e-02,1.54
5.269839e-02,1.56
5.269839e-02,1.56
5.269839e-02,1.54
5.269839e-02,1.58
5.269839e-02,1.56
5.269839e-02,1.56
5.269839e-02,1.58
5.269839e-02,1.54
5.269839e-02,1.58
5.269839e-02,1.56
5.269839e-02,1.56
5.269839e-02,1.56
5.269839e-02,1.56
5.269839e-02,1.6
5.269839e-02,1.58
5.269839e-02,1.56
5.269840e-02,1.54
5.269840e-02,1.56
5.269840e-02,1.56
5.269840e-02,1.58
5.269840e-02,1.58
5.269840e-02,1.56
5.269840e-02,1.56
5.269840e-02,1.54
5.269840e-02,1.58
5.269840e-02,1.58
5.269840e-02,1.54
5.269840e-02,1.58
5.269840e-02,1.58
5.269840e-02,1.56
5.269840e-02,1.58
5.269840e-02,1.56
5.269840e-02,1.56
5.269840e-02,1.56
5.269840e-02,1.56
5.269840e-02,1.58
5.269840e-02,1.58
5.269840e-02,1.56
5.269840e-02,1.58
5.269840e-02,1.58
5.269840e-02,1.56
5.269841e-02,1.56
5.269841e-02,1.56
5.269841e-02,1.58
5.269841e-02,1.56
5.269841e-02,1.56
5.269841e-02,1.56
5.269841e-02,1.58
5.269841e-02,1.58
5.269841e-02,1.54
5.269841e-02,1.56
5.269841e-02,1.58
5.269841e-02,1.58
5.269841e-02,1.58
5.269841e-02,1.58
5.269841e-02,1.58
5.269841e-02,1.56
5.269841e-02,1.56
5.269841e-02,1.58
5.269841e-02,1.56
5.269841e-02,1.56
5.269841e-02,1.56
5.269841e-02,1.58
5.269841e-02,1.56
5.269841e-02,1.58
5.269841e-02,1.56
5.269842e-02,1.54
5.269842e-02,1.56
5.269842e-02,1.56
5.269842e-02,1.56
5.269842e-02,1.54
5.269842e-02,1.56
5.269842e-02,1.58
5.269842e-02,1.56
5.269842e-02,1.56
5.269842e-02,1.56
5.269842e-02,1.56
5.269842e-02,1.56
5.269842e-02,1.56
5.269842e-02,1.56
5.269842e-02,1.56
5.269842e-02,1.54
5.269842e-02,1.58
5.269842e-02,1.58
5.269842e-02,1.56
5.269842e-02,1.56
5.269842e-02,1.54
5.269842e-02,1.54
5.269842e-02,1.56
5.269842e-02,1.56
5.269842e-02,1.54
5.269843e-02,1.54
5.269843e-02,1.54
5.269843e-02,1.56
5.269843e-02,1.56
5.269843e-02,1.54
5.269843e-02,1.54
5.269843e-02,1.54
5.269843e-02,1.56
5.269843e-02,1.54
5.269843e-02,1.5
5.269843e-02,1.54
5.269843e-02,1.52
5.269843e-02,1.52
5.269843e-02,1.5
5.269843e-02,1.54
5.269843e-02,1.52
5.269843e-02,1.54
5.269843e-02,1.52
5.269843e-02,1.52
5.269843e-02,1.52
5.269843e-02,1.54
5.269843e-02,1.52
5.269843e-02,1.52
5.269843e-02,1.56
5.269843e-02,1.52
5.269844e-02,1.5
5.269844e-02,1.52
5.269844e-02,1.52
5.269844e-02,1.5
5.269844e-02,1.52
5.269844e-02,1.52
5.269844e-02,1.5
5.269844e-02,1.5
5.269844e-02,1.52
5.269844e-02,1.52
5.269844e-02,1.54
5.269844e-02,1.52
5.269844e-02,1.5
5.269844e-02,1.5
5.269844e-02,1.5
5.269844e-02,1.52
5.269844e-02,1.52
